[
	{
		"username": "ayamgoreng"
	},
	{
		"username": "buburgoreng"
	},
	{
		"username": "cacinggoreng"
	},
	{
		"username": "dombaputih"
	},
	{
		"username": "elanglaut"
	},
	{
		"username": "falcon"
	},
	{
		"username": "gajahbesar"
	},
	{
		"username": "hiuputih"
	},
	{
		"username": "ikangoreng"
	},
	{
		"username": "jangkrikgoreng"
	},
	{
		"username": "kelalawargoreng"
	},
	{
		"username": "lumbalumba"
	},
	{
		"username": "makanmakan"
	},
	{
		"username": "nasigoreng"
	},
	{
		"username": "oyongoyong"
	},
	{
		"username": "pisanggoreng"
	},
	{
		"username": "queen123"
	},
	{
		"username": "rambulalulintas"
	},
	{
		"username": "sategoreng"
	},
	{
		"username": "tamanbermain"
	},
	{
		"username": "uduknasi"
	},
	{
		"username": "vitaminc"
	},
	{
		"username": "wowamazing"
	},
	{
		"username": "xylitol"
	},
	{
		"username": "yayayaya"
	},
	{
		"username": "zebracross"
	}
]