<svg xmlns="http://www.w3.org/2000/svg" width="38" height="32" viewBox="0 0 38 32">
    <g fill="none" fill-rule="evenodd" stroke="#A28FFD" stroke-width="2" transform="translate(-1 -4)">
        <circle cx="20" cy="32" r="3"/>
        <path stroke-linecap="round" stroke-linejoin="round" d="M29.08 24.344A13.945 13.945 0 0 0 20 21c-3.41 0-6.535 1.219-8.963 3.245M34.062 18.08A21.91 21.91 0 0 0 20 13a21.91 21.91 0 0 0-13.965 5M38.01 11.005c-.08-.06-.16-.12-.24-.178M35.073 9.056a29.945 29.945 0 0 0-6.008-2.662M25.766 5.554A30.152 30.152 0 0 0 20 5a29.867 29.867 0 0 0-18.042 6.03"/>
    </g>
</svg>
