[
	{
		"username": "newuser"
	},
	{
		"username": "newname"
	},
	{
		"username": "monroe"
	},
	{
		"username": "buburgoreng"
	},
	{
		"username": "newuser11"
	},
	{
		"username": "ayamgoreng"
	},
	{
		"username": "anotherfriend"
	}
]